IMPACT Example Script
…
set_cbioportal_db("public")

✔ You are successfully connected!

✔ base_url for this R session is now set to "www.cbioportal.org/api" 

test_cbioportal_db()

✔ You are successfully connected!

all_studies <- available_studies()
all_studies

# A tibble: 354 × 13
   studyId   name  descr…¹ publi…² groups status impor…³ allSa…⁴ readP…⁵ cance…⁶
   <chr>     <chr> <chr>   <lgl>   <chr>   <int> <chr>     <int> <lgl>   <chr>  
 1 acc_tcga  Adre… "TCGA … TRUE    "PUBL…      0 2022-0…      92 TRUE    acc    
 2 bcc_unig… Basa… "Whole… TRUE    "PUBL…      0 2022-0…     293 TRUE    bcc    
 3 ampca_bc… Ampu… "Exome… TRUE    "PUBL…      0 2022-0…     160 TRUE    ampca  
 4 blca_dfa… Blad… "Whole… TRUE    "PUBL…      0 2022-0…      50 TRUE    blca   
 5 blca_msk… Blad… "Compr… TRUE    "PUBL…      0 2022-0…      97 TRUE    blca   
 6 blca_bgi  Blad… "Whole… TRUE    "PUBL…      0 2022-0…      99 TRUE    blca   
 7 blca_msk… Blad… "Genom… TRUE    "PUBL…      0 2022-0…     109 TRUE    blca   
 8 all_stju… Hypo… "Whole… TRUE    ""          0 2022-0…      44 TRUE    myeloid
 9 acyc_fmi… Aden… "Targe… TRUE    "ACYC…      0 2022-0…      28 TRUE    acyc   
10 acyc_san… Aden… "Whole… TRUE    "ACYC…      0 2022-0…      24 TRUE    acyc   
# … with 344 more rows, 3 more variables: referenceGenome <chr>, pmid <chr>,
#   citation <chr>, and abbreviated variable names ¹​description, ²​publicStudy,
#   ³​importDate, ⁴​allSampleCount, ⁵​readPermission, ⁶​cancerTypeId
…
